District,Year,Schools,Teachers,Students
Achham,2007,400,1754,79461
Achham,2008,427,2281,89349
Achham,2009,440,2283,57970
Achham,2010,501,3295,107569
Achham,2011,502,3295,102268
Arghakhanchi,2007,389,2063,71610
Arghakhanchi,2008,417,1859,72009
Arghakhanchi,2009,422,2284,69822
Arghakhanchi,2010,431,2365,67777
Arghakhanchi,2011,451,2535,65260
Baglung,2007,517,2970,90694
Baglung,2008,546,3232,95672
Baglung,2009,559,3729,97133
Baglung,2010,594,4087,94742
Baglung,2011,594,4087,87703
Baitadi,2007,436,2016,71843
Baitadi,2008,474,2276,81921
Baitadi,2009,510,2525,89256
Baitadi,2010,541,3073,97314
Baitadi,2011,554,3080,93592
Bajhang,2007,373,1875,57837
Bajhang,2008,398,2011,75529
Bajhang,2009,401,2284,77962
Bajhang,2010,436,3066,73460
Bajhang,2011,457,3104,75943
Bajura,2007,213,1003,34176
Bajura,2008,230,1114,41067
Bajura,2009,233,1293,44447
Bajura,2010,262,1449,49656
Bajura,2011,262,2159,51324
Banke,2007,338,2114,114392
Banke,2008,358,2900,121392
Banke,2009,391,3200,131014
Banke,2010,409,3535,137703
Banke,2011,436,3845,135594
Bara,2007,384,1483,116738
Bara,2008,384,2291,144475
Bara,2009,380,2291,169334
Bara,2010,418,2893,192118
Bara,2011,418,2893,170268
Bardiya,2007,306,2222,123773
Bardiya,2008,308,2541,127565
Bardiya,2009,335,2843,130801
Bardiya,2010,348,3140,132733
Bardiya,2011,350,3140,127132
Bhaktapur,2007,346,2184,53700
Bhaktapur,2008,346,4739,62604
Bhaktapur,2009,355,4739,64780
Bhaktapur,2010,355,5141,64933
Bhaktapur,2011,355,5141,63964
Bhojpur,2007,378,1713,62901
Bhojpur,2008,386,1901,62749
Bhojpur,2009,399,2193,64795
Bhojpur,2010,404,2360,63345
Bhojpur,2011,404,2368,60638
Chitawan,2007,507,1527,147263
Chitawan,2008,536,4468,147366
Chitawan,2009,530,4634,144042
Chitawan,2010,530,6488,146127
Chitawan,2011,543,6488,143740
Dadeldhura,2007,234,1261,42417
Dadeldhura,2008,247,1419,43625
Dadeldhura,2009,250,1702,45811
Dadeldhura,2010,260,2021,46507
Dadeldhura,2011,263,2061,46854
Dailekh,2007,399,1597,78057
Dailekh,2008,421,1929,94000
Dailekh,2009,461,1929,106253
Dailekh,2010,508,2327,104106
Dailekh,2011,508,2327,101191
Dang,2007,459,3700,146486
Dang,2008,480,3450,149073
Dang,2009,514,4607,161859
Dang,2010,514,4606,155693
Dang,2011,512,4615,151586
Darchaula,2007,311,1382,34432
Darchaula,2008,330,1483,39628
Darchaula,2009,340,1505,43123
Darchaula,2010,356,1838,45003
Darchaula,2011,361,1957,45205
Dhading,2007,593,1078,103093
Dhading,2008,593,3462,107383
Dhading,2009,602,3727,108848
Dhading,2010,602,3985,109756
Dhading,2011,634,4381,107266
Dhankuta,2007,319,1614,50583
Dhankuta,2008,323,1743,52130
Dhankuta,2009,332,1930,52754
Dhankuta,2010,340,2132,51972
Dhankuta,2011,340,2159,47937
Dhanusa,2007,424,1666,145611
Dhanusa,2008,428,2347,145047
Dhanusa,2009,375,2434,154836
Dhanusa,2010,375,2540,152356
Dhanusa,2011,397,2589,160699
Dolakha,2007,394,2030,61770
Dolakha,2008,408,2342,64242
Dolakha,2009,424,2405,68207
Dolakha,2010,424,2740,70761
Dolakha,2011,431,2962,64464
Dolpa,2007,109,480,8285
Dolpa,2008,109,523,8153
Dolpa,2009,122,523,9242
Dolpa,2010,122,533,9783
Dolpa,2011,121,635,10345
Doti,2007,344,1625,59990
Doti,2008,374,1738,64736
Doti,2009,381,2185,68812
Doti,2010,381,2511,71123
Doti,2011,381,2511,66814
Gorkha,2007,489,2185,86926
Gorkha,2008,522,3156,88191
Gorkha,2009,529,3319,89173
Gorkha,2010,531,3483,86424
Gorkha,2011,553,3485,83823
Gulmi,2007,540,2497,100406
Gulmi,2008,563,3246,101459
Gulmi,2009,588,3863,103067
Gulmi,2010,596,4040,100821
Gulmi,2011,615,4238,90050
Humla,2007,116,402,11372
Humla,2008,121,459,13389
Humla,2009,123,461,14609
Humla,2010,123,617,17041
Humla,2011,135,622,16424
Ilam,2007,434,2601,82869
Ilam,2008,460,2974,82523
Ilam,2009,457,3054,80167
Ilam,2010,485,3421,76408
Ilam,2011,494,3482,71613
Jajarkot,2007,266,909,42089
Jajarkot,2008,371,1477,61027
Jajarkot,2009,392,1479,75272
Jajarkot,2010,392,1647,86443
Jajarkot,2011,430,1655,87298
Jhapa,2007,604,5719,196366
Jhapa,2008,630,6153,202082
Jhapa,2009,631,7086,198620
Jhapa,2010,654,9748,201494
Jhapa,2011,684,9767,187160
Jumla,2007,137,550,22934
Jumla,2008,146,804,30264
Jumla,2009,152,805,35710
Jumla,2010,153,1089,34139
Jumla,2011,155,1089,34336
Kailali,2007,568,4349,195501
Kailali,2008,585,5055,199817
Kailali,2009,583,5388,205788
Kailali,2010,605,5099,213965
Kailali,2011,605,5116,206742
Kalikot,2007,213,899,37267
Kalikot,2008,252,986,46498
Kalikot,2009,268,1272,49483
Kalikot,2010,286,1885,50915
Kalikot,2011,288,1885,52184
Kanchanpur,2007,334,2034,105273
Kanchanpur,2008,368,2756,111748
Kanchanpur,2009,409,3117,124629
Kanchanpur,2010,409,3120,135266
Kanchanpur,2011,430,3120,110864
Kapilbastu,2007,350,2058,105729
Kapilbastu,2008,512,3447,130175
Kapilbastu,2009,506,3447,126868
Kapilbastu,2010,511,3807,147300
Kapilbastu,2011,511,3973,151428
Kaski,2007,625,6387,125694
Kaski,2008,630,6308,125824
Kaski,2009,638,6469,128266
Kaski,2010,638,7068,125988
Kaski,2011,645,7476,119486
Kathmandu,2007,1298,10894,295202
Kathmandu,2008,1298,18501,282335
Kathmandu,2009,1370,18501,337238
Kathmandu,2010,1370,18018,314720
Kathmandu,2011,1370,18018,332232
Kavre,2007,649,4416,121725
Kavre,2008,683,6504,126203
Kavre,2009,695,6504,128170
Kavre,2010,695,6989,124085
Kavre,2011,696,7136,118362
Khotang,2007,491,902,62993
Khotang,2008,472,2164,84850
Khotang,2009,484,2257,88379
Khotang,2010,484,2294,71521
Khotang,2011,484,2763,78455
Lalitpur,2007,477,5403,109851
Lalitpur,2008,477,6374,111543
Lalitpur,2009,488,6374,119858
Lalitpur,2010,488,6331,116673
Lalitpur,2011,488,6331,110130
Lamjung,2007,403,2361,59025
Lamjung,2008,410,2656,58389
Lamjung,2009,415,2731,59723
Lamjung,2010,420,3074,58904
Lamjung,2011,424,3160,54003
Mahottari,2007,274,1658,107934
Mahottari,2008,326,2157,127927
Mahottari,2009,337,2157,129195
Mahottari,2010,337,2300,145411
Mahottari,2011,415,2466,167548
Makwanpur,2007,512,3061,123028
Makwanpur,2008,582,3660,134528
Makwanpur,2009,590,3837,138826
Makwanpur,2010,595,4738,132814
Makwanpur,2011,597,4792,124766
Manang,2007,32,198,1006
Manang,2008,32,212,885
Manang,2009,32,213,925
Manang,2010,32,206,897
Manang,2011,32,207,901
Morang,2007,663,5345,224429
Morang,2008,712,4755,225355
Morang,2009,707,4962,244323
Morang,2010,707,4923,238819
Morang,2011,707,5133,198910
Mugu,2007,124,468,12186
Mugu,2008,126,486,13898
Mugu,2009,130,486,15654
Mugu,2010,130,589,16831
Mugu,2011,152,682,16996
Mustang,2007,67,330,2564
Mustang,2008,69,395,2567
Mustang,2009,70,470,2666
Mustang,2010,70,449,2715
Mustang,2011,70,480,2662
Myagdi,2007,241,1382,34097
Myagdi,2008,252,1252,34451
Myagdi,2009,255,1252,34663
Myagdi,2010,268,1562,34803
Myagdi,2011,273,1570,33101
Nawalparasi,2007,593,4048,170318
Nawalparasi,2008,650,4435,172013
Nawalparasi,2009,677,5668,189945
Nawalparasi,2010,678,5023,191179
Nawalparasi,2011,706,5958,184757
Nuwakot,2007,490,2269,85017
Nuwakot,2008,490,2551,85238
Nuwakot,2009,501,2758,86697
Nuwakot,2010,501,2532,75268
Nuwakot,2011,521,2599,83975
Okhaldhunga,2007,328,1527,49258
Okhaldhunga,2008,334,1509,50714
Okhaldhunga,2009,353,1719,53481
Okhaldhunga,2010,365,2114,56799
Okhaldhunga,2011,368,2206,52513
Palpa,2007,477,3330,93606
Palpa,2008,481,3407,92812
Palpa,2009,487,3859,93864
Palpa,2010,494,4316,91788
Palpa,2011,496,4423,82346
Panchthar,2007,392,2096,75847
Panchthar,2008,398,2063,75679
Panchthar,2009,387,2173,73260
Panchthar,2010,436,3177,77169
Panchthar,2011,436,3184,75196
Parbat,2007,341,2131,52627
Parbat,2008,360,2287,53172
Parbat,2009,359,2351,51528
Parbat,2010,364,2702,50497
Parbat,2011,369,2702,42964
Parsa,2007,319,2094,111602
Parsa,2008,399,2358,126978
Parsa,2009,387,2358,135709
Parsa,2010,392,2757,142729
Parsa,2011,392,2757,136729
Pyuthan,2007,324,1523,66662
Pyuthan,2008,334,1713,69561
Pyuthan,2009,356,2073,72369
Pyuthan,2010,356,2031,68220
Pyuthan,2011,373,2381,72838
Ramechhap,2007,413,1930,72255
Ramechhap,2008,446,2112,76221
Ramechhap,2009,478,2455,81778
Ramechhap,2010,487,2891,84768
Ramechhap,2011,492,2915,74225
Rasuwa,2007,108,506,12979
Rasuwa,2008,110,540,13031
Rasuwa,2009,111,598,13819
Rasuwa,2010,112,607,13588
Rasuwa,2011,113,679,13754
Rautahat,2007,299,1723,108000
Rautahat,2008,334,2061,133628
Rautahat,2009,368,2063,105261
Rautahat,2010,417,2287,175391
Rautahat,2011,487,2387,198028
Rolpa,2007,304,1471,55454
Rolpa,2008,347,1571,65260
Rolpa,2009,393,1805,72262
Rolpa,2010,416,2157,79776
Rolpa,2011,423,2248,76689
Rukum,2007,305,161,57510
Rukum,2008,350,1377,73883
Rukum,2009,362,1377,79632
Rukum,2010,386,1540,88806
Rukum,2011,391,1596,95701
Rupandehi,2007,481,3666,179399
Rupandehi,2008,481,4179,173158
Rupandehi,2009,555,5311,207278
Rupandehi,2010,555,6098,196872
Rupandehi,2011,597,8780,206756
Salyan,2007,366,1703,77746
Salyan,2008,382,1683,82275
Salyan,2009,385,1702,85797
Salyan,2010,396,1749,79890
Salyan,2011,454,1833,89897
Sankhuwasabha,2007,364,1778,50173
Sankhuwasabha,2008,387,1937,52350
Sankhuwasabha,2009,404,2065,54801
Sankhuwasabha,2010,411,2226,55379
Sankhuwasabha,2011,414,2502,51285
Saptari,2007,351,660,138084
Saptari,2008,351,2292,91127
Saptari,2009,340,2295,122898
Saptari,2010,340,2570,84323
Saptari,2011,484,2847,153652
Sarlahi,2007,333,1631,107329
Sarlahi,2008,333,2155,126644
Sarlahi,2009,448,2369,161039
Sarlahi,2010,448,2344,156933
Sarlahi,2011,745,2823,197427
Sindhuli,2007,502,1523,87114
Sindhuli,2008,543,2492,108072
Sindhuli,2009,557,2934,120794
Sindhuli,2010,581,3558,122959
Sindhuli,2011,581,3660,116999
Sindhupalchok,2007,490,1802,70431
Sindhupalchok,2008,516,2699,89228
Sindhupalchok,2009,542,2699,65952
Sindhupalchok,2010,556,3201,96101
Sindhupalchok,2011,556,3460,89454
Siraha,2007,411,1988,127873
Siraha,2008,428,2383,141831
Siraha,2009,412,2383,139323
Siraha,2010,469,2715,157435
Siraha,2011,469,2797,154837
Solukhumbu,2007,290,1306,35373
Solukhumbu,2008,293,1228,39995
Solukhumbu,2009,290,1228,38816
Solukhumbu,2010,290,1557,39359
Solukhumbu,2011,290,1557,39025
Sunsari,2007,466,4116,153143
Sunsari,2008,509,4216,168406
Sunsari,2009,521,4221,173333
Sunsari,2010,718,4527,163882
Sunsari,2011,745,4832,196562
Surkhet,2007,503,2711,103056
Surkhet,2008,543,2904,111011
Surkhet,2009,581,2907,117821
Surkhet,2010,581,3183,118287
Surkhet,2011,581,3309,127824
Syangja,2007,574,3785,92752
Syangja,2008,623,4156,99064
Syangja,2009,631,4716,98636
Syangja,2010,631,5291,95761
Syangja,2011,637,5318,87742
Tanahu,2007,608,2603,97604
Tanahu,2008,621,3887,95670
Tanahu,2009,644,4525,96007
Tanahu,2010,645,4547,97306
Tanahu,2011,650,4573,94631
Taplejung,2007,304,1669,56461
Taplejung,2008,312,1733,65263
Taplejung,2009,312,1824,66719
Taplejung,2010,339,2255,75336
Taplejung,2011,339,2321,71113
Terhathum,2007,248,1384,40550
Terhathum,2008,248,1423,40926
Terhathum,2009,252,1489,41886
Terhathum,2010,252,1598,43585
Terhathum,2011,253,1624,41773
Udayapur,2007,384,1924,83591
Udayapur,2008,431,2230,105700
Udayapur,2009,432,2230,102355
Udayapur,2010,454,2908,105473
Udayapur,2011,472,2988,106181
